mul_8/waveform.vcd
$date
	Tue Jan  7 23:07:22 2025
$end
$version
	Icarus Verilog
$end
$timescale
	1s
$end
$scope module testbench $end
$var wire 1 ! rfd2 $end
$var wire 1 " rfd1 $end
$var wire 1 # ok $end
$var wire 16 $ m [15:0] $end
$var wire 1 % clock $end
$var reg 1 & dav1_ $end
$var reg 1 ' dav2_ $end
$var reg 1 ( error $end
$var reg 1 ) reset_ $end
$var reg 8 * x [7:0] $end
$var reg 8 + y [7:0] $end
$scope function get_testcase $end
$upscope $end
$scope module clk $end
$var wire 1 % clock $end
$var parameter 32 , HALF_PERIOD $end
$var reg 1 - CLOCK $end
$upscope $end
$scope module dut $end
$var wire 1 % clock $end
$var wire 1 & dav1_ $end
$var wire 1 ' dav2_ $end
$var wire 1 ) reset_ $end
$var wire 8 . x [7:0] $end
$var wire 8 / y [7:0] $end
$var wire 1 ! rfd2 $end
$var wire 1 " rfd1 $end
$var wire 1 # ok $end
$var wire 16 0 m [15:0] $end
$var wire 1 1 c1 $end
$var wire 1 2 c0 $end
$var wire 1 3 b1 $end
$var wire 1 4 b0 $end
$scope module p_co $end
$var wire 1 5 c2 $end
$var wire 1 % clock $end
$var wire 1 ) reset_ $end
$var wire 1 1 c1 $end
$var wire 1 2 c0 $end
$var wire 1 3 b1 $end
$var wire 1 4 b0 $end
$var parameter 2 6 s0 $end
$var parameter 2 7 s1 $end
$var parameter 2 8 s2 $end
$var reg 2 9 STAR [1:0] $end
$upscope $end
$scope module p_op $end
$var wire 1 4 b0 $end
$var wire 1 3 b1 $end
$var wire 1 2 c0 $end
$var wire 1 1 c1 $end
$var wire 1 % clock $end
$var wire 1 & dav1_ $end
$var wire 1 ' dav2_ $end
$var wire 16 : m [15:0] $end
$var wire 1 # ok $end
$var wire 1 ) reset_ $end
$var wire 1 " rfd1 $end
$var wire 1 ! rfd2 $end
$var wire 8 ; x [7:0] $end
$var wire 8 < y [7:0] $end
$var wire 16 = p [15:0] $end
$var reg 16 > M [15:0] $end
$var reg 1 ? OK $end
$var reg 1 @ RFD $end
$scope module mul $end
$var wire 8 A x [7:0] $end
$var wire 8 B y [7:0] $end
$var wire 8 C part_6 [7:0] $end
$var wire 8 D part_5 [7:0] $end
$var wire 8 E part_4 [7:0] $end
$var wire 8 F part_3 [7:0] $end
$var wire 8 G part_2 [7:0] $end
$var wire 8 H part_1 [7:0] $end
$var wire 8 I part_0 [7:0] $end
$var wire 16 J p [15:0] $end
$scope module mul_0 $end
$var wire 8 K c [7:0] $end
$var wire 8 L x [7:0] $end
$var wire 1 M y_i $end
$var wire 9 N s [8:0] $end
$var wire 9 O p [8:0] $end
$scope module a $end
$var wire 1 P c_in $end
$var wire 1 Q ow $end
$var wire 8 R x [7:0] $end
$var wire 8 S y [7:0] $end
$var wire 8 T s [7:0] $end
$var wire 1 U c_out $end
$var parameter 32 V N $end
$upscope $end
$upscope $end
$scope module mul_1 $end
$var wire 8 W c [7:0] $end
$var wire 8 X x [7:0] $end
$var wire 1 Y y_i $end
$var wire 9 Z s [8:0] $end
$var wire 9 [ p [8:0] $end
$scope module a $end
$var wire 1 \ c_in $end
$var wire 1 ] ow $end
$var wire 8 ^ x [7:0] $end
$var wire 8 _ y [7:0] $end
$var wire 8 ` s [7:0] $end
$var wire 1 a c_out $end
$var parameter 32 b N $end
$upscope $end
$upscope $end
$scope module mul_2 $end
$var wire 8 c c [7:0] $end
$var wire 8 d x [7:0] $end
$var wire 1 e y_i $end
$var wire 9 f s [8:0] $end
$var wire 9 g p [8:0] $end
$scope module a $end
$var wire 1 h c_in $end
$var wire 1 i ow $end
$var wire 8 j x [7:0] $end
$var wire 8 k y [7:0] $end
$var wire 8 l s [7:0] $end
$var wire 1 m c_out $end
$var parameter 32 n N $end
$upscope $end
$upscope $end
$scope module mul_3 $end
$var wire 8 o c [7:0] $end
$var wire 8 p x [7:0] $end
$var wire 1 q y_i $end
$var wire 9 r s [8:0] $end
$var wire 9 s p [8:0] $end
$scope module a $end
$var wire 1 t c_in $end
$var wire 1 u ow $end
$var wire 8 v x [7:0] $end
$var wire 8 w y [7:0] $end
$var wire 8 x s [7:0] $end
$var wire 1 y c_out $end
$var parameter 32 z N $end
$upscope $end
$upscope $end
$scope module mul_44 $end
$var wire 8 { c [7:0] $end
$var wire 8 | x [7:0] $end
$var wire 1 } y_i $end
$var wire 9 ~ s [8:0] $end
$var wire 9 !" p [8:0] $end
$scope module a $end
$var wire 1 "" c_in $end
$var wire 1 #" ow $end
$var wire 8 $" x [7:0] $end
$var wire 8 %" y [7:0] $end
$var wire 8 &" s [7:0] $end
$var wire 1 '" c_out $end
$var parameter 32 (" N $end
$upscope $end
$upscope $end
$scope module mul_5 $end
$var wire 8 )" c [7:0] $end
$var wire 8 *" x [7:0] $end
$var wire 1 +" y_i $end
$var wire 9 ," s [8:0] $end
$var wire 9 -" p [8:0] $end
$scope module a $end
$var wire 1 ." c_in $end
$var wire 1 /" ow $end
$var wire 8 0" x [7:0] $end
$var wire 8 1" y [7:0] $end
$var wire 8 2" s [7:0] $end
$var wire 1 3" c_out $end
$var parameter 32 4" N $end
$upscope $end
$upscope $end
$scope module mul_6 $end
$var wire 8 5" c [7:0] $end
$var wire 8 6" x [7:0] $end
$var wire 1 7" y_i $end
$var wire 9 8" s [8:0] $end
$var wire 9 9" p [8:0] $end
$scope module a $end
$var wire 1 :" c_in $end
$var wire 1 ;" ow $end
$var wire 8 <" x [7:0] $end
$var wire 8 =" y [7:0] $end
$var wire 8 >" s [7:0] $end
$var wire 1 ?" c_out $end
$var parameter 32 @" N $end
$upscope $end
$upscope $end
$scope module mul_7 $end
$var wire 8 A" c [7:0] $end
$var wire 8 B" x [7:0] $end
$var wire 1 C" y_i $end
$var wire 9 D" s [8:0] $end
$var wire 9 E" p [8:0] $end
$scope module a $end
$var wire 1 F" c_in $end
$var wire 1 G" ow $end
$var wire 8 H" x [7:0] $end
$var wire 8 I" y [7:0] $end
$var wire 8 J" s [7:0] $end
$var wire 1 K" c_out $end
$var parameter 32 L" N $end
$upscope $end
$upscope $end
$upscope $end
$upscope $end
$upscope $end
$scope fork f $end
$scope begin consumer $end
$var reg 6 M" i_c [5:0] $end
$var reg 16 N" m_c [15:0] $end
$var reg 8 O" x_c [7:0] $end
$var reg 8 P" y_c [7:0] $end
$upscope $end
$scope begin producer1 $end
$var reg 6 Q" i_p [5:0] $end
$var reg 16 R" m_p [15:0] $end
$var reg 8 S" x_p [7:0] $end
$var reg 8 T" y_p [7:0] $end
$upscope $end
$scope begin producer2 $end
$var reg 6 U" i_p [5:0] $end
$var reg 16 V" m_p [15:0] $end
$var reg 8 W" x_p [7:0] $end
$var reg 8 X" y_p [7:0] $end
$upscope $end
$upscope $end
$upscope $end
$enddefinitions $end
$comment Show the parameter values. $end
$dumpall
b1000 L"
b1000 @"
b1000 4"
b1000 ("
b1000 z
b1000 n
b1000 b
b1000 V
b10 8
b1 7
b0 6
b101 ,
$end
#0
$dumpvars
bx X"
bx W"
bx V"
bx U"
bx T"
bx S"
bx R"
bx Q"
bx P"
bx O"
bx N"
bx M"
xK"
bx J"
bx I"
bx H"
xG"
0F"
bx E"
bx D"
xC"
bx B"
bx A"
x?"
bx >"
bx ="
bx <"
x;"
0:"
bx 9"
bx 8"
x7"
bx 6"
bx 5"
x3"
bx 2"
bx 1"
bx 0"
x/"
0."
bx -"
bx ,"
x+"
bx *"
bx )"
x'"
bx &"
bx %"
bx $"
x#"
0""
bx !"
bx ~
x}
bx |
bx {
xy
bx x
bx w
bx v
xu
0t
bx s
bx r
xq
bx p
bx o
xm
bx l
bx k
bx j
xi
0h
bx g
bx f
xe
bx d
bx c
xa
bx `
bx _
bx ^
x]
0\
bx [
bx Z
xY
bx X
bx W
xU
bx T
b0 S
bx R
xQ
0P
bx O
bx N
xM
bx L
b0 K
bx J
bx I
bx H
bx G
bx F
bx E
bx D
bx C
bx B
bx A
x@
x?
bx >
bx =
bx <
bx ;
bx :
bx 9
z5
x4
x3
02
11
bx 0
bx /
bx .
0-
bx +
bx *
0)
0(
1'
1&
0%
bx $
x#
x"
x!
$end
#1
03
04
b0 9
1!
1"
1@
0#
0?
#5
1%
1-
b101 S"
b11100 T"
b10001100 R"
b0 Q"
b101 W"
b11100 X"
b10001100 V"
b0 U"
b101 O"
b11100 P"
b10001100 N"
b0 M"
1)
#10
0%
0-
#15
1%
1-
#20
0%
0-
#25
1%
1-
#30
0%
0-
#35
1%
1-
b0 I
b0 W
b0 _
b0 H
b0 c
b0 k
b0xxxxxxx D
b0xxxxxxx 5"
b0xxxxxxx ="
b0xxxxxx C
b0xxxxxx A"
b0xxxxxx I"
b0 O
b0 [
b0xxxxxxxx -"
b0xxxxxxx 9"
b0xxxxxxxxxxx00 =
b0xxxxxxxxxxx00 J
b0xxxxxx E"
0M
0Y
1e
1q
1}
0+"
07"
0C"
b101 *
b101 .
b101 ;
b101 A
b101 L
b101 R
b101 X
b101 ^
b101 d
b101 j
b101 p
b101 v
b101 |
b101 $"
b101 *"
b101 0"
b101 6"
b101 <"
b101 B"
b101 H"
b11100 +
b11100 /
b11100 <
b11100 B
#36
b0xxxxxxxxxx100 =
b0xxxxxxxxxx100 J
b10 G
b10 o
b10 w
b101 g
b101 l
b101 f
0m
b101 `
b101 Z
0a
b101 T
b101 N
0U
#37
b0xxxxxxxxx1100 =
b0xxxxxxxxx1100 J
b11 F
b11 {
b11 %"
b111 s
b111 x
b111 r
0y
0i
0]
0Q
#38
b0xxxxxxxxx1100 $
b0xxxxxxxxx1100 0
b0xxxxxxxxx1100 :
b0xxxxxxxxx1100 >
b1 E"
b1 C
b1 A"
b1 I"
b10 9"
b10 D
b10 5"
b10 ="
b100 -"
b10001100 =
b10001100 J
b100 E
b100 )"
b100 1"
b1000 !"
b1000 &"
b1000 ~
0'"
0u
#39
b110 J"
b110 D"
0K"
b111 >"
b111 8"
0?"
b1001 2"
b1001 ,"
03"
0#"
#40
0%
0-
0G"
0;"
0/"
#45
1%
1-
12
01
0&
0'
#48
14
b10001100 $
b10001100 0
b10001100 :
b10001100 >
b1 9
#50
0%
0-
#55
1%
1-
#58
0!
0"
0@
#60
0%
0-
#65
1%
1-
#70
0%
0-
#75
1%
1-
#80
0%
0-
#85
1%
1-
#88
b0x0 I
b0x0 W
b0x0 _
b0xx H
b0xx c
b0xx k
b0xx G
b0xx o
b0xx w
b0xx F
b0xx {
b0xx %"
b0x0x E
b0x0x )"
b0x0x 1"
b0xx0 D
b0xx0 5"
b0xx0 ="
b0xx C
b0xx A"
b0xx I"
b0x0x O
b0xxx [
b0xxx g
b0xxx s
b0x0xx !"
b0xx0x -"
b0xxx 9"
b0xxxxxxxxxx =
b0xxxxxxxxxx J
b0xxx E"
02
xM
xY
xe
xq
x}
x+"
x7"
xC"
11
bx +
bx /
bx <
bx B
1'
bx *
bx .
bx ;
bx A
bx L
bx R
bx X
bx ^
bx d
bx j
bx p
bx v
bx |
bx $"
bx *"
bx 0"
bx 6"
bx <"
bx B"
bx H"
1&
#89
bx I
bx W
bx _
bx H
bx c
bx k
bx G
bx o
bx w
bx F
bx {
bx %"
bx E
bx )"
bx 1"
bx D
bx 5"
bx ="
bx C
bx A"
bx I"
bx O
bx [
bx g
bx s
bx !"
bx -"
bx 9"
bx =
bx J
bx E"
bx T
bx N
xU
bx `
bx Z
xa
bx l
bx f
xm
bx x
bx r
xy
bx &"
bx ~
x'"
bx 2"
bx ,"
x3"
bx >"
bx 8"
x?"
bx J"
bx D"
xK"
xQ
x]
xi
xu
x#"
x/"
x;"
xG"
#90
0%
0-
#95
1%
1-
#98
13
04
b10 9
#100
0%
0-
#105
1%
1-
#108
b100011 P"
b10101111 N"
b1 M"
03
1#
1?
b0 9
#110
0%
0-
#115
1%
1-
#118
b100011 X"
b10101111 V"
b1 U"
b100011 T"
b10101111 R"
b1 Q"
0#
0?
bx $
bx 0
bx :
bx >
1!
1"
1@
#120
0%
0-
#125
1%
1-
#130
0%
0-
#135
1%
1-
#140
0%
0-
#145
1%
1-
#148
b0xxxxxxx G
b0xxxxxxx o
b0xxxxxxx w
b0xxxxxx F
b0xxxxxx {
b0xxxxxx %"
b0xxxxx E
b0xxxxx )"
b0xxxxx 1"
b0xxxxxxx C
b0xxxxxxx A"
b0xxxxxxx I"
b0xxxxxxxx g
b0xxxxxxx s
b0xxxxxx !"
b0xxxxxxxx 9"
b0xxxxxxxxxxxxxx =
b0xxxxxxxxxxxxxx J
b0xxxxxxx E"
1M
1Y
0e
0q
0}
1+"
07"
0C"
b100011 +
b100011 /
b100011 <
b100011 B
b101 *
b101 .
b101 ;
b101 A
b101 L
b101 R
b101 X
b101 ^
b101 d
b101 j
b101 p
b101 v
b101 |
b101 $"
b101 *"
b101 0"
b101 6"
b101 <"
b101 B"
b101 H"
#149
b0xxxxxxxxxxxxx1 =
b0xxxxxxxxxxxxx1 J
b10 I
b10 W
b10 _
b101 O
b101 T
b101 N
0U
#150
0%
0-
b0 E
b0 )"
b0 1"
b0 !"
b0 F
b0 {
b0 %"
b1 s
b1 G
b1 o
b1 w
b11 g
b0xxxxxxxxx01111 =
b0xxxxxxxxx01111 J
b11 H
b11 c
b11 k
b111 [
b111 `
b111 Z
0a
0Q
#151
b1 E"
b1 C
b1 A"
b1 I"
b10 9"
b10101111 =
b10101111 J
b10 D
b10 5"
b10 ="
b101 -"
b101 2"
b101 ,"
03"
b101 &"
b101 ~
0'"
b110 x
b110 r
0y
b1000 l
b1000 f
0m
0]
#152
b110 J"
b110 D"
0K"
b111 >"
b111 8"
0?"
0/"
0#"
0u
0i
#153
0G"
0;"
#155
1%
1-
#158
b10101111 $
b10101111 0
b10101111 :
b10101111 >
12
01
0'
0&
#160
0%
0-
#165
1%
1-
#168
14
b1 9
#170
0%
0-
#175
1%
1-
#178
0!
0"
0@
#180
0%
0-
#185
1%
1-
#190
0%
0-
#195
1%
1-
#200
0%
0-
#205
1%
1-
#208
b0x0 I
b0x0 W
b0x0 _
b0xx H
b0xx c
b0xx k
b0x0x G
b0x0x o
b0x0x w
b0xx F
b0xx {
b0xx %"
b0xx E
b0xx )"
b0xx 1"
b0xx D
b0xx 5"
b0xx ="
b0xx C
b0xx A"
b0xx I"
b0x0x O
b0xxx [
b0x0xx g
b0xxx s
b0xxx !"
b0xxx -"
b0xxx 9"
b0xxxxxxxxxx =
b0xxxxxxxxxx J
b0xxx E"
02
xM
xY
xe
xq
x}
x+"
x7"
xC"
11
bx +
bx /
bx <
bx B
1'
bx *
bx .
bx ;
bx A
bx L
bx R
bx X
bx ^
bx d
bx j
bx p
bx v
bx |
bx $"
bx *"
bx 0"
bx 6"
bx <"
bx B"
bx H"
1&
#209
bx I
bx W
bx _
bx H
bx c
bx k
bx G
bx o
bx w
bx F
bx {
bx %"
bx E
bx )"
bx 1"
bx D
bx 5"
bx ="
bx C
bx A"
bx I"
bx O
bx [
bx g
bx s
bx !"
bx -"
bx 9"
bx =
bx J
bx E"
bx T
bx N
xU
bx `
bx Z
xa
bx l
bx f
xm
bx x
bx r
xy
bx &"
bx ~
x'"
bx 2"
bx ,"
x3"
bx >"
bx 8"
x?"
bx J"
bx D"
xK"
xQ
x]
xi
xu
x#"
x/"
x;"
xG"
#210
0%
0-
#215
1%
1-
#218
13
04
b10 9
#220
0%
0-
#225
1%
1-
#228
b101010 P"
b11010010 N"
b10 M"
03
1#
1?
b0 9
#230
0%
0-
#235
1%
1-
#238
b101010 X"
b11010010 V"
b10 U"
b101010 T"
b11010010 R"
b10 Q"
0#
0?
bx $
bx 0
bx :
bx >
1!
1"
1@
#240
0%
0-
#245
1%
1-
#250
0%
0-
#255
1%
1-
#260
0%
0-
#265
1%
1-
#268
b0 I
b0 W
b0 _
b0xxxxxxx G
b0xxxxxxx o
b0xxxxxxx w
b0xxxxxxx E
b0xxxxxxx )"
b0xxxxxxx 1"
b0xxxxxxx C
b0xxxxxxx A"
b0xxxxxxx I"
b0 O
b0xxxxxxxx g
b0xxxxxxxx !"
b0xxxxxxxx 9"
b0xxxxxxxxxxxxx0 =
b0xxxxxxxxxxxxx0 J
b0xxxxxxx E"
0M
1Y
0e
1q
0}
1+"
07"
0C"
b101010 +
b101010 /
b101010 <
b101010 B
b101 *
b101 .
b101 ;
b101 A
b101 L
b101 R
b101 X
b101 ^
b101 d
b101 j
b101 p
b101 v
b101 |
b101 $"
b101 *"
b101 0"
b101 6"
b101 <"
b101 B"
b101 H"
#269
b1 G
b1 o
b1 w
b10 g
b0xxxxxxxxxxx010 =
b0xxxxxxxxxxx010 J
b10 H
b10 c
b10 k
b101 [
b101 `
b101 Z
0a
b101 T
b101 N
0U
#270
0%
0-
b1 E
b1 )"
b1 1"
b11 !"
b0xxxxxxxxx10010 =
b0xxxxxxxxx10010 J
b11 F
b11 {
b11 %"
b110 s
b110 x
b110 r
0y
b111 l
b111 f
0m
0]
0Q
#271
b1 E"
b1 C
b1 A"
b1 I"
b11 9"
b11010010 =
b11010010 J
b11 D
b11 5"
b11 ="
b110 -"
b110 2"
b110 ,"
03"
b1000 &"
b1000 ~
0'"
0u
0i
#272
b110 J"
b110 D"
0K"
b1000 >"
b1000 8"
0?"
0/"
0#"
#273
0G"
0;"
#275
1%
1-
#278
b11010010 $
b11010010 0
b11010010 :
b11010010 >
12
01
0'
0&
#280
0%
0-
#285
1%
1-
#288
14
b1 9
#290
0%
0-
#295
1%
1-
#298
0!
0"
0@
#300
0%
0-
#305
1%
1-
#310
0%
0-
#315
1%
1-
#320
0%
0-
#325
1%
1-
#328
b0x0 I
b0x0 W
b0x0 _
b0xx H
b0xx c
b0xx k
b0xx G
b0xx o
b0xx w
b0xx F
b0xx {
b0xx %"
b0x0x E
b0x0x )"
b0x0x 1"
b0xx D
b0xx 5"
b0xx ="
b0x0x C
b0x0x A"
b0x0x I"
b0x0x O
b0xxx [
b0xxx g
b0xxx s
b0x0xx !"
b0xxx -"
b0x0xx 9"
b0xxxxxxxxxx =
b0xxxxxxxxxx J
b0xxx E"
02
xM
xY
xe
xq
x}
x+"
x7"
xC"
11
bx +
bx /
bx <
bx B
1'
bx *
bx .
bx ;
bx A
bx L
bx R
bx X
bx ^
bx d
bx j
bx p
bx v
bx |
bx $"
bx *"
bx 0"
bx 6"
bx <"
bx B"
bx H"
1&
#329
bx I
bx W
bx _
bx H
bx c
bx k
bx G
bx o
bx w
bx F
bx {
bx %"
bx E
bx )"
bx 1"
bx D
bx 5"
bx ="
bx C
bx A"
bx I"
bx O
bx [
bx g
bx s
bx !"
bx -"
bx 9"
bx =
bx J
bx E"
bx T
bx N
xU
bx `
bx Z
xa
bx l
bx f
xm
bx x
bx r
xy
bx &"
bx ~
x'"
bx 2"
bx ,"
x3"
bx >"
bx 8"
x?"
bx J"
bx D"
xK"
xQ
x]
xi
xu
x#"
x/"
x;"
xG"
#330
0%
0-
#335
1%
1-
#338
13
04
b10 9
#340
0%
0-
#345
1%
1-
#348
b110001 P"
b11110101 N"
b11 M"
03
1#
1?
b0 9
#350
0%
0-
#355
1%
1-
#358
b110001 X"
b11110101 V"
b11 U"
b110001 T"
b11110101 R"
b11 Q"
0#
0?
bx $
bx 0
bx :
bx >
1!
1"
1@
#360
0%
0-
#365
1%
1-
#370
0%
0-
#375
1%
1-
#380
0%
0-
#385
1%
1-
#388
b0xxxxxxx H
b0xxxxxxx c
b0xxxxxxx k
b0xxxxxx G
b0xxxxxx o
b0xxxxxx w
b0xxxxx F
b0xxxxx {
b0xxxxx %"
b0xxxxxxx C
b0xxxxxxx A"
b0xxxxxxx I"
b0xxxxxxxx [
b0xxxxxxx g
b0xxxxxx s
b0xxxxxxxx 9"
b0xxxxxxxxxxxxxx =
b0xxxxxxxxxxxxxx J
b0xxxxxxx E"
1M
0Y
0e
0q
1}
1+"
07"
0C"
b110001 +
b110001 /
b110001 <
b110001 B
b101 *
b101 .
b101 ;
b101 A
b101 L
b101 R
b101 X
b101 ^
b101 d
b101 j
b101 p
b101 v
b101 |
b101 $"
b101 *"
b101 0"
b101 6"
b101 <"
b101 B"
b101 H"
#389
b0 F
b0 {
b0 %"
b0 s
b0 G
b0 o
b0 w
b1 g
b1 H
b1 c
b1 k
b10 [
b0xxxxxxxxxx0101 =
b0xxxxxxxxxx0101 J
b10 I
b10 W
b10 _
b101 O
b101 T
b101 N
0U
#390
0%
0-
b0xxxxxxxxx10101 =
b0xxxxxxxxx10101 J
b10 E
b10 )"
b10 1"
b101 !"
b101 &"
b101 ~
0'"
b101 x
b101 r
0y
b110 l
b110 f
0m
b111 `
b111 Z
0a
0Q
#391
b1 E"
b1 C
b1 A"
b1 I"
b11 9"
b11110101 =
b11110101 J
b11 D
b11 5"
b11 ="
b111 -"
b111 2"
b111 ,"
03"
0#"
0u
0i
0]
#392
b110 J"
b110 D"
0K"
b1000 >"
b1000 8"
0?"
0/"
#393
0G"
0;"
#395
1%
1-
#398
b11110101 $
b11110101 0
b11110101 :
b11110101 >
12
01
0'
0&
#400
0%
0-
#405
1%
1-
#408
14
b1 9
#410
0%
0-
#415
1%
1-
#418
0!
0"
0@
#420
0%
0-
#425
1%
1-
#430
0%
0-
#435
1%
1-
#440
0%
0-
#445
1%
1-
#448
b0x0 I
b0x0 W
b0x0 _
b0xx H
b0xx c
b0xx k
b0xx G
b0xx o
b0xx w
b0xx F
b0xx {
b0xx %"
b0xx E
b0xx )"
b0xx 1"
b0xx D
b0xx 5"
b0xx ="
b0x0x C
b0x0x A"
b0x0x I"
b0x0x O
b0xxx [
b0xxx g
b0xxx s
b0xxx !"
b0xxx -"
b0x0xx 9"
b0xxxxxxxxxx =
b0xxxxxxxxxx J
b0xxx E"
02
xM
xY
xe
xq
x}
x+"
x7"
xC"
11
bx +
bx /
bx <
bx B
1'
bx *
bx .
bx ;
bx A
bx L
bx R
bx X
bx ^
bx d
bx j
bx p
bx v
bx |
bx $"
bx *"
bx 0"
bx 6"
bx <"
bx B"
bx H"
1&
#449
bx I
bx W
bx _
bx H
bx c
bx k
bx G
bx o
bx w
bx F
bx {
bx %"
bx E
bx )"
bx 1"
bx D
bx 5"
bx ="
bx C
bx A"
bx I"
bx O
bx [
bx g
bx s
bx !"
bx -"
bx 9"
bx =
bx J
bx E"
bx T
bx N
xU
bx `
bx Z
xa
bx l
bx f
xm
bx x
bx r
xy
bx &"
bx ~
x'"
bx 2"
bx ,"
x3"
bx >"
bx 8"
x?"
bx J"
bx D"
xK"
xQ
x]
xi
xu
x#"
x/"
x;"
xG"
#450
0%
0-
#455
1%
1-
#458
13
04
b10 9
#460
0%
0-
#465
1%
1-
#468
b1010 O"
b11100 P"
b100011000 N"
b100 M"
03
1#
1?
b0 9
#470
0%
0-
#475
1%
1-
#478
b1010 W"
b11100 X"
b100011000 V"
b100 U"
b1010 S"
b11100 T"
b100011000 R"
b100 Q"
0#
0?
bx $
bx 0
bx :
bx >
1!
1"
1@
#480
0%
0-
#485
1%
1-
#490
0%
0-
#495
1%
1-
#500
0%
0-
#505
1%
1-
#508
b0 I
b0 W
b0 _
b0 H
b0 c
b0 k
b0xxxxxxx D
b0xxxxxxx 5"
b0xxxxxxx ="
b0xxxxxx C
b0xxxxxx A"
b0xxxxxx I"
b0 O
b0 [
b0xxxxxxxx -"
b0xxxxxxx 9"
b0xxxxxxxxxxx00 =
b0xxxxxxxxxxx00 J
b0xxxxxx E"
0M
0Y
1e
1q
1}
0+"
07"
0C"
b11100 +
b11100 /
b11100 <
b11100 B
b1010 *
b1010 .
b1010 ;
b1010 A
b1010 L
b1010 R
b1010 X
b1010 ^
b1010 d
b1010 j
b1010 p
b1010 v
b1010 |
b1010 $"
b1010 *"
b1010 0"
b1010 6"
b1010 <"
b1010 B"
b1010 H"
#509
b0xxxxxxxxxx000 =
b0xxxxxxxxxx000 J
b101 G
b101 o
b101 w
b1010 g
b1010 l
b1010 f
0m
b1010 `
b1010 Z
0a
b1010 T
b1010 N
0U
#510
0%
0-
b0xxxxxxxxx1000 =
b0xxxxxxxxx1000 J
b111 F
b111 {
b111 %"
b1111 s
b1111 x
b1111 r
0y
0i
0]
0Q
#511
b10 E"
b10 C
b10 A"
b10 I"
b100 9"
b100 D
b100 5"
b100 ="
b1000 -"
b100011000 =
b100011000 J
b1000 E
b1000 )"
b1000 1"
b10001 !"
b10001 &"
b10001 ~
0'"
0u
#512
b1100 J"
b1100 D"
0K"
b1110 >"
b1110 8"
0?"
b10010 2"
b10010 ,"
03"
0#"
#513
0G"
0;"
0/"
#515
1%
1-
#518
b100011000 $
b100011000 0
b100011000 :
b100011000 >
12
01
0'
0&
#520
0%
0-
#525
1%
1-
#528
14
b1 9
#530
0%
0-
#535
1%
1-
#538
0!
0"
0@
#540
0%
0-
#545
1%
1-
#550
0%
0-
#555
1%
1-
#560
0%
0-
#565
1%
1-
#568
b0x0x I
b0x0x W
b0x0x _
b0xxx H
b0xxx c
b0xxx k
b0xxx G
b0xxx o
b0xxx w
b0xxx F
b0xxx {
b0xxx %"
b0x0xx E
b0x0xx )"
b0x0xx 1"
b0xx0x D
b0xx0x 5"
b0xx0x ="
b0xxx C
b0xxx A"
b0xxx I"
b0x0x0 O
b0xxxx [
b0xxxx g
b0xxxx s
b0x0xxx !"
b0xx0xx -"
b0xxxx 9"
b0xxxxxxxxxx0 =
b0xxxxxxxxxx0 J
b0xxxx E"
02
xM
xY
xe
xq
x}
x+"
x7"
xC"
11
bx +
bx /
bx <
bx B
1'
bx *
bx .
bx ;
bx A
bx L
bx R
bx X
bx ^
bx d
bx j
bx p
bx v
bx |
bx $"
bx *"
bx 0"
bx 6"
bx <"
bx B"
bx H"
1&
#569
bx I
bx W
bx _
bx H
bx c
bx k
bx G
bx o
bx w
bx F
bx {
bx %"
bx E
bx )"
bx 1"
bx D
bx 5"
bx ="
bx C
bx A"
bx I"
bx O
bx [
bx g
bx s
bx !"
bx -"
bx 9"
bx =
bx J
bx E"
bx T
bx N
xU
bx `
bx Z
xa
bx l
bx f
xm
bx x
bx r
xy
bx &"
bx ~
x'"
bx 2"
bx ,"
x3"
bx >"
bx 8"
x?"
bx J"
bx D"
xK"
xQ
x]
xi
xu
x#"
x/"
x;"
xG"
#570
0%
0-
#575
1%
1-
#578
13
04
b10 9
#580
0%
0-
#585
1%
1-
#588
b100011 P"
b101011110 N"
b101 M"
03
1#
1?
b0 9
#590
0%
0-
#595
1%
1-
#598
b100011 X"
b101011110 V"
b101 U"
b100011 T"
b101011110 R"
b101 Q"
0#
0?
bx $
bx 0
bx :
bx >
1!
1"
1@
#600
0%
0-
#605
1%
1-
#610
0%
0-
#615
1%
1-
#620
0%
0-
#625
1%
1-
#628
b0xxxxxxx G
b0xxxxxxx o
b0xxxxxxx w
b0xxxxxx F
b0xxxxxx {
b0xxxxxx %"
b0xxxxx E
b0xxxxx )"
b0xxxxx 1"
b0xxxxxxx C
b0xxxxxxx A"
b0xxxxxxx I"
b0xxxxxxxx g
b0xxxxxxx s
b0xxxxxx !"
b0xxxxxxxx 9"
b0xxxxxxxxxxxxxx =
b0xxxxxxxxxxxxxx J
b0xxxxxxx E"
1M
1Y
0e
0q
0}
1+"
07"
0C"
b100011 +
b100011 /
b100011 <
b100011 B
b1010 *
b1010 .
b1010 ;
b1010 A
b1010 L
b1010 R
b1010 X
b1010 ^
b1010 d
b1010 j
b1010 p
b1010 v
b1010 |
b1010 $"
b1010 *"
b1010 0"
b1010 6"
b1010 <"
b1010 B"
b1010 H"
#629
b0xxxxxxxxxxxxx0 =
b0xxxxxxxxxxxxx0 J
b101 I
b101 W
b101 _
b1010 O
b1010 T
b1010 N
0U
#630
0%
0-
b0 E
b0 )"
b0 1"
b1 !"
b1 F
b1 {
b1 %"
b11 s
b11 G
b11 o
b11 w
b111 g
b0xxxxxxxxx11110 =
b0xxxxxxxxx11110 J
b111 H
b111 c
b111 k
b1111 [
b1111 `
b1111 Z
0a
0Q
#631
b10 E"
b10 C
b10 A"
b10 I"
b101 9"
b101011110 =
b101011110 J
b101 D
b101 5"
b101 ="
b1010 -"
b1010 2"
b1010 ,"
03"
b1011 &"
b1011 ~
0'"
b1101 x
b1101 r
0y
b10001 l
b10001 f
0m
0]
#632
b1100 J"
b1100 D"
0K"
b1111 >"
b1111 8"
0?"
0/"
0#"
0u
0i
#633
0G"
0;"
#635
1%
1-
#638
b101011110 $
b101011110 0
b101011110 :
b101011110 >
12
01
0'
0&
#640
0%
0-
#645
1%
1-
#648
14
b1 9
#650
0%
0-
#655
1%
1-
#658
0!
0"
0@
#660
0%
0-
#665
1%
1-
#670
0%
0-
#675
1%
1-
#680
0%
0-
#685
1%
1-
#688
b0x0x I
b0x0x W
b0x0x _
b0xxx H
b0xxx c
b0xxx k
b0x0xx G
b0x0xx o
b0x0xx w
b0xxx F
b0xxx {
b0xxx %"
b0xxx E
b0xxx )"
b0xxx 1"
b0xxx D
b0xxx 5"
b0xxx ="
b0xxx C
b0xxx A"
b0xxx I"
b0x0x0 O
b0xxxx [
b0x0xxx g
b0xxxx s
b0xxxx !"
b0xxxx -"
b0xxxx 9"
b0xxxxxxxxxx0 =
b0xxxxxxxxxx0 J
b0xxxx E"
02
xM
xY
xe
xq
x}
x+"
x7"
xC"
11
bx +
bx /
bx <
bx B
1'
bx *
bx .
bx ;
bx A
bx L
bx R
bx X
bx ^
bx d
bx j
bx p
bx v
bx |
bx $"
bx *"
bx 0"
bx 6"
bx <"
bx B"
bx H"
1&
