max_count/waveform.vcd
$date
	Tue Jan  7 22:37:54 2025
$end
$version
	Icarus Verilog
$end
$timescale
	1s
$end
$scope module testbench $end
$var wire 1 ! rfd_y $end
$var wire 1 " rfd_x $end
$var wire 1 # out $end
$var wire 1 $ clock $end
$var reg 1 % dav_x $end
$var reg 1 & dav_y $end
$var reg 1 ' reset_ $end
$var reg 8 ( x [7:0] $end
$var reg 8 ) y [7:0] $end
$scope function get_testcase $end
$upscope $end
$scope module clk $end
$var wire 1 $ clock $end
$var parameter 32 * HALF_PERIOD $end
$var reg 1 + CLOCK $end
$upscope $end
$scope module dut $end
$var wire 1 $ clock $end
$var wire 1 % dav_x $end
$var wire 1 & dav_y $end
$var wire 1 ' reset_ $end
$var wire 8 , x [7:0] $end
$var wire 8 - y [7:0] $end
$var wire 1 ! rfd_y $end
$var wire 1 " rfd_x $end
$var wire 1 # out $end
$var wire 1 . c2 $end
$var wire 1 / c1 $end
$var wire 1 0 c0 $end
$var wire 1 1 b1 $end
$var wire 1 2 b0 $end
$scope module p_co $end
$var wire 1 $ clock $end
$var wire 1 ' reset_ $end
$var wire 1 . c2 $end
$var wire 1 / c1 $end
$var wire 1 0 c0 $end
$var wire 1 1 b1 $end
$var wire 1 2 b0 $end
$var parameter 2 3 s0 $end
$var parameter 2 4 s1 $end
$var parameter 2 5 s2 $end
$var reg 2 6 STAR [1:0] $end
$upscope $end
$scope module p_op $end
$var wire 1 2 b0 $end
$var wire 1 1 b1 $end
$var wire 1 0 c0 $end
$var wire 1 / c1 $end
$var wire 1 $ clock $end
$var wire 1 % dav_x $end
$var wire 1 & dav_y $end
$var wire 1 # out $end
$var wire 1 ' reset_ $end
$var wire 1 " rfd_x $end
$var wire 1 ! rfd_y $end
$var wire 8 7 x [7:0] $end
$var wire 8 8 y [7:0] $end
$var wire 8 9 z7_z0 [7:0] $end
$var wire 1 . c2 $end
$var reg 8 : COUNT [7:0] $end
$var reg 1 ; OUTR $end
$var reg 1 < RFD $end
$scope module m $end
$var wire 8 = x [7:0] $end
$var wire 8 > y [7:0] $end
$var wire 8 ? z7_z0 [7:0] $end
$var wire 1 @ less $end
$scope module c $end
$var wire 1 A eq $end
$var wire 1 @ less $end
$var wire 8 B x [7:0] $end
$var wire 8 C y [7:0] $end
$var wire 8 D d [7:0] $end
$var wire 1 E b_out $end
$scope module s $end
$var wire 1 F b_in $end
$var wire 1 E b_out $end
$var wire 8 G x [7:0] $end
$var wire 8 H y [7:0] $end
$var wire 8 I d [7:0] $end
$var wire 1 J c_out $end
$scope module a $end
$var wire 1 K c_in $end
$var wire 8 L x [7:0] $end
$var wire 8 M y [7:0] $end
$var wire 8 N s [7:0] $end
$var wire 1 J c_out $end
$upscope $end
$upscope $end
$upscope $end
$upscope $end
$upscope $end
$upscope $end
$scope fork f $end
$scope begin consumer $end
$var reg 6 O i [5:0] $end
$var reg 8 P t_x [7:0] $end
$var reg 8 Q t_y [7:0] $end
$var reg 8 R t_z [7:0] $end
$var real 1 S diff $end
$var real 1 T sample_ne $end
$var real 1 U sample_pe $end
$upscope $end
$scope begin producer_x $end
$var reg 6 V i [5:0] $end
$var reg 8 W t_x [7:0] $end
$var reg 8 X t_y [7:0] $end
$var reg 8 Y t_z [7:0] $end
$upscope $end
$scope begin producer_y $end
$var reg 6 Z i [5:0] $end
$var reg 8 [ t_x [7:0] $end
$var reg 8 \ t_y [7:0] $end
$var reg 8 ] t_z [7:0] $end
$upscope $end
$upscope $end
$upscope $end
$enddefinitions $end
$comment Show the parameter values. $end
$dumpall
b10 5
b1 4
b0 3
b101 *
$end
#0
$dumpvars
bx ]
bx \
bx [
bx Z
bx Y
bx X
bx W
bx V
r0 U
r0 T
r0 S
bx R
bx Q
bx P
bx O
bx N
bx M
bx L
1K
xJ
bx I
bx H
bx G
0F
xE
bx D
bx C
bx B
xA
x@
bx ?
bx >
bx =
x<
x;
bx :
bx 9
bx 8
bx 7
bx 6
x2
x1
00
1/
x.
bx -
bx ,
0+
bx )
bx (
0'
1&
1%
0$
x#
x"
x!
$end
#1
01
02
b0 6
1!
1"
1<
0#
0;
#5
1$
1+
b101 W
b1100 X
b1100 Y
b0 V
b101 [
b1100 \
b1100 ]
b0 Z
b101 P
b1100 Q
b1100 R
b0 O
1'
#10
0$
0+
#15
1$
1+
#20
0$
0+
#25
1$
1+
#30
0$
0+
#35
1$
1+
b101 (
b101 ,
b101 7
b101 =
b101 B
b101 G
b101 L
#40
0$
0+
#45
1$
1+
0/
0%
#50
0$
0+
#55
1$
1+
#60
0$
0+
#65
1$
1+
b0x10x 9
b0x10x ?
b11110011 M
b1100 )
b1100 -
b1100 8
b1100 >
b1100 C
b1100 H
#66
b1100 9
b1100 ?
0A
1@
1E
b11111001 D
b11111001 I
b11111001 N
0J
#68
0.
b1100 :
#70
0$
0+
#75
1$
1+
#80
0$
0+
#85
1$
1+
10
0&
#88
12
b1 6
#90
0$
0+
#95
1$
1+
#98
0!
0"
0<
#100
0$
0+
#105
1$
1+
#110
0$
0+
#115
1$
1+
#120
0$
0+
#125
1$
1+
#128
00
bx (
bx ,
bx 7
bx =
bx B
bx G
bx L
1%
#129
xA
bx 9
bx ?
x@
xE
bx D
bx I
bx N
xJ
#130
0$
0+
#135
1$
1+
#140
0$
0+
#145
1$
1+
#150
0$
0+
#155
1$
1+
#158
bx M
1/
bx )
bx -
bx 8
bx >
bx C
bx H
1&
#160
0$
0+
#165
1$
1+
#168
11
02
b10 6
#170
0$
0+
#175
1$
1+
#178
r178 U
b1011 :
1#
1;
#180
0$
0+
#185
1$
1+
#188
b1010 :
#190
0$
0+
#195
1$
1+
#198
b1001 :
#200
0$
0+
#205
1$
1+
#208
b1000 :
#210
0$
0+
#215
1$
1+
#218
b111 :
#220
0$
0+
#225
1$
1+
#228
b110 :
#230
0$
0+
#235
1$
1+
#238
b101 :
#240
0$
0+
#245
1$
1+
#248
b100 :
#250
0$
0+
#255
1$
1+
#258
b11 :
#260
0$
0+
#265
1$
1+
#268
b10 :
#270
0$
0+
#275
1$
1+
#278
1.
b1 :
#280
0$
0+
#285
1$
1+
#288
01
0.
b0 :
b0 6
#290
0$
0+
#295
1$
1+
#298
b1100 P
b1010 Q
b1 O
r12 S
r298 T
b1100 [
b1010 \
b1 Z
b1100 W
b1010 X
b1 V
x.
bx :
0#
0;
1!
1"
1<
#300
0$
0+
#305
1$
1+
#310
0$
0+
#315
1$
1+
#320
0$
0+
#325
1$
1+
#328
b1100 (
b1100 ,
b1100 7
b1100 =
b1100 B
b1100 G
b1100 L
#330
0$
0+
#335
1$
1+
#338
0/
0%
#340
0$
0+
#345
1$
1+
#350
0$
0+
#355
1$
1+
#358
b1xx0 9
b1xx0 ?
b11110101 M
b1010 )
b1010 -
b1010 8
b1010 >
b1010 C
b1010 H
#359
b1100 9
b1100 ?
0A
0@
0E
b10 D
b10 I
b10 N
1J
#360
0$
0+
#365
1$
1+
#368
0.
b1100 :
#370
0$
0+
#375
1$
1+
#378
10
0&
#380
0$
0+
#385
1$
1+
#388
12
b1 6
#390
0$
0+
#395
1$
1+
#398
0!
0"
0<
#400
0$
0+
#405
1$
1+
#410
0$
0+
#415
1$
1+
#420
0$
0+
#425
1$
1+
#428
00
bx 9
bx ?
bx (
bx ,
bx 7
bx =
bx B
bx G
bx L
1%
#429
xA
x@
xE
bx D
bx I
bx N
xJ
#430
0$
0+
#435
1$
1+
#440
0$
0+
#445
1$
1+
#450
0$
0+
#455
1$
1+
#458
bx M
1/
bx )
bx -
bx 8
bx >
bx C
bx H
1&
#460
0$
0+
#465
1$
1+
#468
11
02
b10 6
#470
0$
0+
#475
1$
1+
#478
r478 U
b1011 :
1#
1;
#480
0$
0+
#485
1$
1+
#488
b1010 :
#490
0$
0+
#495
1$
1+
#498
b1001 :
#500
0$
0+
#505
1$
1+
#508
b1000 :
#510
0$
0+
#515
1$
1+
#518
b111 :
#520
0$
0+
#525
1$
1+
#528
b110 :
#530
0$
0+
#535
1$
1+
#538
b101 :
#540
0$
0+
#545
1$
1+
#548
b100 :
#550
0$
0+
#555
1$
1+
#558
b11 :
#560
0$
0+
#565
1$
1+
#568
b10 :
#570
0$
0+
#575
1$
1+
#578
1.
b1 :
#580
0$
0+
#585
1$
1+
#588
01
0.
b0 :
b0 6
#590
0$
0+
#595
1$
1+
#598
b1111 P
b1100 Q
b1111 R
b10 O
r598 T
b1111 [
b1100 \
b1111 ]
b10 Z
b1111 W
b1100 X
b1111 Y
b10 V
x.
bx :
0#
0;
1!
1"
1<
#600
0$
0+
#605
1$
1+
#610
0$
0+
#615
1$
1+
#620
0$
0+
#625
1$
1+
#628
b1111 (
b1111 ,
b1111 7
b1111 =
b1111 B
b1111 G
b1111 L
#630
0$
0+
#635
1$
1+
#638
0/
0%
#640
0$
0+
#645
1$
1+
#650
0$
0+
#655
1$
1+
#658
b11xx 9
b11xx ?
b11110011 M
b1100 )
b1100 -
b1100 8
b1100 >
b1100 C
b1100 H
#659
b1111 9
b1111 ?
0A
0@
0E
b11 D
b11 I
b11 N
1J
#660
0$
0+
#665
1$
1+
#668
0.
b1111 :
#670
0$
0+
#675
1$
1+
#678
10
0&
#680
0$
0+
#685
1$
1+
#688
12
b1 6
#690
0$
0+
#695
1$
1+
#698
0!
0"
0<
#700
0$
0+
#705
1$
1+
#710
0$
0+
#715
1$
1+
#720
0$
0+
#725
1$
1+
#728
00
bx 9
bx ?
bx (
bx ,
bx 7
bx =
bx B
bx G
bx L
1%
#729
xA
x@
xE
bx D
bx I
bx N
xJ
#730
0$
0+
#735
1$
1+
#740
0$
0+
#745
1$
1+
#750
0$
0+
#755
1$
1+
#758
bx M
1/
bx )
bx -
bx 8
bx >
bx C
bx H
1&
#760
0$
0+
#765
1$
1+
#768
11
02
b10 6
#770
0$
0+
#775
1$
1+
#778
r778 U
b1110 :
1#
1;
#780
0$
0+
#785
1$
1+
#788
b1101 :
#790
0$
0+
#795
1$
1+
#798
b1100 :
#800
0$
0+
#805
1$
1+
#808
b1011 :
#810
0$
0+
#815
1$
1+
#818
b1010 :
#820
0$
0+
#825
1$
1+
#828
b1001 :
#830
0$
0+
#835
1$
1+
#838
b1000 :
#840
0$
0+
#845
1$
1+
#848
b111 :
#850
0$
0+
#855
1$
1+
#858
b110 :
#860
0$
0+
#865
1$
1+
#868
b101 :
#870
0$
0+
#875
1$
1+
#878
b100 :
#880
0$
0+
#885
1$
1+
#888
b11 :
#890
0$
0+
#895
1$
1+
#898
b10 :
#900
0$
0+
#905
1$
1+
#908
1.
b1 :
#910
0$
0+
#915
1$
1+
#918
01
b0 6
0.
b0 :
#920
0$
0+
#925
1$
1+
#928
b1100 [
b10100 \
b10100 ]
b11 Z
b1100 W
b10100 X
b10100 Y
b11 V
b1100 P
b10100 Q
b10100 R
b11 O
r15 S
r928 T
1!
1"
1<
0#
0;
x.
bx :
#930
0$
0+
#935
1$
1+
#940
0$
0+
#945
1$
1+
#950
0$
0+
#955
1$
1+
#958
b1100 (
b1100 ,
b1100 7
b1100 =
b1100 B
b1100 G
b1100 L
#960
0$
0+
#965
1$
1+
#968
0/
0%
#970
0$
0+
#975
1$
1+
#980
0$
0+
#985
1$
1+
#988
b0xx100 9
b0xx100 ?
b11101011 M
b10100 )
b10100 -
b10100 8
b10100 >
b10100 C
b10100 H
#989
b10100 9
b10100 ?
0A
1@
1E
b11111000 D
b11111000 I
b11111000 N
0J
#990
0$
0+
#995
1$
1+
#998
0.
b10100 :
#1000
0$
0+
#1005
1$
1+
#1008
10
0&
#1010
0$
0+
#1015
1$
1+
#1018
12
b1 6
#1020
0$
0+
#1025
1$
1+
#1028
0!
0"
0<
#1030
0$
0+
#1035
1$
1+
#1040
0$
0+
#1045
1$
1+
#1050
0$
0+
#1055
1$
1+
#1058
00
bx (
bx ,
bx 7
bx =
bx B
bx G
bx L
1%
#1059
xA
bx 9
bx ?
x@
xE
bx D
bx I
bx N
xJ
#1060
0$
0+
#1065
1$
1+
#1070
0$
0+
#1075
1$
1+
#1080
0$
0+
#1085
1$
1+
#1088
bx M
1/
bx )
bx -
bx 8
bx >
bx C
bx H
1&
#1090
0$
0+
#1095
1$
1+
#1098
11
02
b10 6
#1100
0$
0+
#1105
1$
1+
#1108
r1108 U
1#
1;
b10011 :
#1110
0$
0+
#1115
1$
1+
#1118
b10010 :
#1120
0$
0+
#1125
1$
1+
#1128
b10001 :
#1130
0$
0+
#1135
1$
1+
#1138
b10000 :
#1140
0$
0+
#1145
1$
1+
#1148
b1111 :
#1150
0$
0+
#1155
1$
1+
#1158
b1110 :
#1160
0$
0+
#1165
1$
1+
#1168
b1101 :
#1170
0$
0+
#1175
1$
1+
#1178
b1100 :
#1180
0$
0+
#1185
1$
1+
#1188
b1011 :
#1190
0$
0+
#1195
1$
1+
#1198
b1010 :
#1200
0$
0+
#1205
1$
1+
#1208
b1001 :
#1210
0$
0+
#1215
1$
1+
#1218
b1000 :
#1220
0$
0+
#1225
1$
1+
#1228
b111 :
#1230
0$
0+
#1235
1$
1+
#1238
b110 :
#1240
0$
0+
#1245
1$
1+
#1248
b101 :
#1250
0$
0+
#1255
1$
1+
#1258
b100 :
#1260
0$
0+
#1265
1$
1+
#1268
b11 :
#1270
0$
0+
#1275
1$
1+
#1278
b10 :
#1280
0$
0+
#1285
1$
1+
#1288
1.
b1 :
#1290
0$
0+
#1295
1$
1+
#1298
01
b0 6
0.
b0 :
#1300
0$
0+
#1305
1$
1+
#1308
b101 [
b1111 \
b1111 ]
b100 Z
b101 W
b1111 X
b1111 Y
b100 V
b101 P
b1111 Q
b1111 R
b100 O
r20 S
r1308 T
1!
1"
1<
0#
0;
x.
bx :
#1310
0$
0+
#1315
1$
1+
#1320
0$
0+
#1325
1$
1+
#1330
0$
0+
#1335
1$
1+
#1338
b101 (
b101 ,
b101 7
b101 =
b101 B
b101 G
b101 L
#1340
0$
0+
#1345
1$
1+
#1348
0/
0%
#1350
0$
0+
#1355
1$
1+
#1360
0$
0+
#1365
1$
1+
#1368
b0x1x1 9
b0x1x1 ?
b11110000 M
b1111 )
b1111 -
b1111 8
b1111 >
b1111 C
b1111 H
#1369
b1111 9
b1111 ?
0A
1@
1E
b11110110 D
b11110110 I
b11110110 N
0J
#1370
0$
0+
#1375
1$
1+
#1378
0.
b1111 :
#1380
0$
0+
#1385
1$
1+
#1388
10
0&
#1390
0$
0+
#1395
1$
1+
#1398
12
b1 6
#1400
0$
0+
#1405
1$
1+
#1408
0!
0"
0<
#1410
0$
0+
#1415
1$
1+
#1420
0$
0+
#1425
1$
1+
#1430
0$
0+
#1435
1$
1+
#1438
00
bx (
bx ,
bx 7
bx =
bx B
bx G
bx L
1%
#1439
xA
bx 9
bx ?
x@
xE
bx D
bx I
bx N
xJ
#1440
0$
0+
#1445
1$
1+
#1450
0$
0+
#1455
1$
1+
#1460
0$
0+
#1465
1$
1+
#1468
bx M
1/
bx )
bx -
bx 8
bx >
bx C
bx H
1&
#1470
0$
0+
#1475
1$
1+
#1478
11
02
b10 6
#1480
0$
0+
#1485
1$
1+
#1488
r1488 U
1#
1;
b1110 :
#1490
0$
0+
#1495
1$
1+
#1498
b1101 :
#1500
0$
0+
#1505
1$
1+
#1508
b1100 :
#1510
0$
0+
#1515
1$
1+
#1518
b1011 :
#1520
0$
0+
#1525
1$
1+
#1528
b1010 :
#1530
0$
0+
#1535
1$
1+
#1538
b1001 :
#1540
0$
0+
#1545
1$
1+
#1548
b1000 :
#1550
0$
0+
#1555
1$
1+
#1558
b111 :
#1560
0$
0+
#1565
1$
1+
#1568
b110 :
#1570
0$
0+
#1575
1$
1+
#1578
b101 :
#1580
0$
0+
#1585
1$
1+
#1588
b100 :
#1590
0$
0+
#1595
1$
1+
#1598
b11 :
#1600
0$
0+
#1605
1$
1+
#1608
b10 :
#1610
0$
0+
#1615
1$
1+
#1618
1.
b1 :
#1620
0$
0+
#1625
1$
1+
#1628
01
0.
b0 :
b0 6
#1630
0$
0+
#1635
1$
1+
#1638
b1111 P
b1010 Q
b101 O
r15 S
r1638 T
b1111 [
b1010 \
b101 Z
b1111 W
b1010 X
b101 V
x.
bx :
0#
0;
1!
1"
1<
#1640
0$
0+
#1645
1$
1+
#1650
0$
0+
#1655
1$
1+
#1660
0$
0+
#1665
1$
1+
#1668
b1111 (
b1111 ,
b1111 7
b1111 =
b1111 B
b1111 G
b1111 L
#1670
0$
0+
#1675
1$
1+
#1678
0/
0%
#1680
0$
0+
#1685
1$
1+
#1690
0$
0+
#1695
1$
1+
#1698
b1x1x 9
b1x1x ?
b11110101 M
b1010 )
b1010 -
b1010 8
b1010 >
b1010 C
b1010 H
#1699
b1111 9
b1111 ?
0A
0@
0E
b101 D
b101 I
b101 N
1J
#1700
0$
0+
#1705
1$
1+
#1708
0.
b1111 :
#1710
0$
0+
#1715
1$
1+
#1718
10
0&
#1720
0$
0+
#1725
1$
1+
#1728
12
b1 6
#1730
0$
0+
#1735
1$
1+
#1738
0!
0"
0<
#1740
0$
0+
#1745
1$
1+
#1750
0$
0+
#1755
1$
1+
#1760
0$
0+
#1765
1$
1+
#1768
00
bx 9
bx ?
bx (
bx ,
bx 7
bx =
bx B
bx G
bx L
1%
#1769
xA
x@
xE
bx D
bx I
bx N
xJ
#1770
0$
0+
#1775
1$
1+
#1780
0$
0+
#1785
1$
1+
#1790
0$
0+
#1795
1$
1+
#1798
bx M
1/
bx )
bx -
bx 8
bx >
bx C
bx H
1&
#1800
0$
0+
#1805
1$
1+
#1808
11
02
b10 6
#1810
0$
0+
#1815
1$
1+
#1818
r1818 U
b1110 :
1#
1;
#1820
0$
0+
#1825
1$
1+
#1828
b1101 :
#1830
0$
0+
#1835
1$
1+
#1838
b1100 :
#1840
0$
0+
#1845
1$
1+
#1848
b1011 :
#1850
0$
0+
#1855
1$
1+
#1858
b1010 :
#1860
0$
0+
#1865
1$
1+
#1868
b1001 :
#1870
0$
0+
#1875
1$
1+
#1878
b1000 :
#1880
0$
0+
#1885
1$
1+
#1888
b111 :
#1890
0$
0+
#1895
1$
1+
#1898
b110 :
#1900
0$
0+
#1905
1$
1+
#1908
b101 :
#1910
0$
0+
#1915
1$
1+
#1918
b100 :
#1920
0$
0+
#1925
1$
1+
#1928
b11 :
#1930
0$
0+
#1935
1$
1+
#1938
b10 :
#1940
0$
0+
#1945
1$
1+
#1948
1.
b1 :
#1950
0$
0+
#1955
1$
1+
#1958
01
b0 6
0.
b0 :
#1960
0$
0+
#1965
1$
1+
#1968
b1111 \
b110 Z
b1111 X
b110 V
b1111 Q
b110 O
r1968 T
1!
1"
1<
0#
0;
x.
bx :
#1970
0$
0+
#1975
1$
1+
#1980
0$
0+
#1985
1$
1+
#1990
0$
0+
#1995
1$
1+
#1998
b1111 (
b1111 ,
b1111 7
b1111 =
b1111 B
b1111 G
b1111 L
#2000
0$
0+
#2005
1$
1+
#2008
0/
0%
#2010
0$
0+
#2015
1$
1+
#2020
0$
0+
#2025
1$
1+
#2028
b1111 9
b1111 ?
b11110000 M
b1111 )
b1111 -
b1111 8
b1111 >
b1111 C
b1111 H
#2029
1A
0@
0E
b0 D
b0 I
b0 N
1J
#2030
0$
0+
#2035
1$
1+
#2038
0.
b1111 :
#2040
0$
0+
#2045
1$
1+
#2048
10
0&
#2050
0$
0+
#2055
1$
1+
#2058
12
b1 6
#2060
0$
0+
#2065
1$
1+
#2068
0!
0"
0<
#2070
0$
0+
#2075
1$
1+
#2080
0$
0+
#2085
1$
1+
#2090
0$
0+
#2095
1$
1+
#2098
00
bx 9
bx ?
bx (
bx ,
bx 7
bx =
bx B
bx G
bx L
1%
#2099
xA
x@
xE
bx D
bx I
bx N
xJ
#2100
0$
0+
#2105
1$
1+
#2110
0$
0+
#2115
1$
1+
#2120
0$
0+
#2125
1$
1+
#2128
bx M
1/
bx )
bx -
bx 8
bx >
bx C
bx H
1&
#2130
0$
0+
#2135
1$
1+
#2138
11
02
b10 6
#2140
0$
0+
#2145
1$
1+
#2148
r2148 U
1#
1;
b1110 :
#2150
0$
0+
#2155
1$
1+
#2158
b1101 :
#2160
0$
0+
#2165
1$
1+
#2168
b1100 :
#2170
0$
0+
#2175
1$
1+
#2178
b1011 :
#2180
0$
0+
#2185
1$
1+
#2188
b1010 :
#2190
0$
0+
#2195
1$
1+
#2198
b1001 :
#2200
0$
0+
#2205
1$
1+
#2208
b1000 :
#2210
0$
0+
#2215
1$
1+
#2218
b111 :
#2220
0$
0+
#2225
1$
1+
#2228
b110 :
#2230
0$
0+
#2235
1$
1+
#2238
b101 :
#2240
0$
0+
#2245
1$
1+
#2248
b100 :
#2250
0$
0+
#2255
1$
1+
#2258
b11 :
#2260
0$
0+
#2265
1$
1+
#2268
b10 :
#2270
0$
0+
#2275
1$
1+
#2278
1.
b1 :
#2280
0$
0+
#2285
1$
1+
#2288
01
0.
b0 :
b0 6
#2290
0$
0+
#2295
1$
1+
#2298
b10100 Q
b10100 R
b111 O
r2298 T
b10100 \
b10100 ]
b111 Z
b10100 X
b10100 Y
b111 V
x.
bx :
0#
0;
1!
1"
1<
#2300
0$
0+
#2305
1$
1+
#2310
0$
0+
#2315
1$
1+
#2320
0$
0+
#2325
1$
1+
#2328
b1111 (
b1111 ,
b1111 7
b1111 =
b1111 B
b1111 G
b1111 L
#2330
0$
0+
#2335
1$
1+
#2338
0/
0%
#2340
0$
0+
#2345
1$
1+
#2350
0$
0+
#2355
1$
1+
#2358
b0xx1xx 9
b0xx1xx ?
b11101011 M
b10100 )
b10100 -
b10100 8
b10100 >
b10100 C
b10100 H
#2359
b10100 9
b10100 ?
0A
1@
1E
b11111011 D
b11111011 I
b11111011 N
0J
#2360
0$
0+
#2365
1$
1+
#2368
0.
b10100 :
#2370
0$
0+
#2375
1$
1+
#2378
10
0&
#2380
0$
0+
#2385
1$
1+
#2388
12
b1 6
#2390
0$
0+
#2395
1$
1+
#2398
0!
0"
0<
#2400
0$
0+
#2405
1$
1+
#2410
0$
0+
#2415
1$
1+
#2420
0$
0+
#2425
1$
1+
#2428
00
bx (
bx ,
bx 7
bx =
bx B
bx G
bx L
1%
#2429
xA
bx 9
bx ?
x@
xE
bx D
bx I
bx N
xJ
#2430
0$
0+
#2435
1$
1+
#2440
0$
0+
#2445
1$
1+
#2450
0$
0+
#2455
1$
1+
#2458
bx M
1/
bx )
bx -
bx 8
bx >
bx C
bx H
1&
#2460
0$
0+
#2465
1$
1+
#2468
11
02
b10 6
#2470
0$
0+
#2475
1$
1+
#2478
r2478 U
b10011 :
1#
1;
#2480
0$
0+
#2485
1$
1+
#2488
b10010 :
#2490
0$
0+
#2495
1$
1+
#2498
b10001 :
#2500
0$
0+
#2505
1$
1+
#2508
b10000 :
#2510
0$
0+
#2515
1$
1+
#2518
b1111 :
#2520
0$
0+
#2525
1$
1+
#2528
b1110 :
#2530
0$
0+
#2535
1$
1+
#2538
b1101 :
#2540
0$
0+
#2545
1$
1+
#2548
b1100 :
#2550
0$
0+
#2555
1$
1+
#2558
b1011 :
#2560
0$
0+
#2565
1$
1+
#2568
b1010 :
#2570
0$
0+
#2575
1$
1+
#2578
b1001 :
#2580
0$
0+
#2585
1$
1+
#2588
b1000 :
#2590
0$
0+
#2595
1$
1+
#2598
b111 :
#2600
0$
0+
#2605
1$
1+
#2608
b110 :
#2610
0$
0+
#2615
1$
1+
#2618
b101 :
#2620
0$
0+
#2625
1$
1+
#2628
b100 :
#2630
0$
0+
#2635
1$
1+
#2638
b11 :
#2640
0$
0+
#2645
1$
1+
#2648
b10 :
#2650
0$
0+
#2655
1$
1+
#2658
1.
b1 :
#2660
0$
0+
#2665
1$
1+
#2668
01
0.
b0 :
b0 6
#2670
0$
0+
#2675
1$
1+
#2678
b101 P
b10010 Q
b10010 R
b1000 O
r20 S
r2678 T
b101 [
b10010 \
b10010 ]
b1000 Z
b101 W
b10010 X
b10010 Y
b1000 V
x.
bx :
0#
0;
1!
1"
1<
#2680
0$
0+
#2685
1$
1+
#2690
0$
0+
#2695
1$
1+
#2700
0$
0+
#2705
1$
1+
#2708
b101 (
b101 ,
b101 7
b101 =
b101 B
b101 G
b101 L
#2710
0$
0+
#2715
1$
1+
#2718
0/
0%
#2720
0$
0+
#2725
1$
1+
#2730
0$
0+
#2735
1$
1+
#2738
b0x0xxx 9
b0x0xxx ?
b11101101 M
b10010 )
b10010 -
b10010 8
b10010 >
b10010 C
b10010 H
#2739
b10010 9
b10010 ?
0A
1@
1E
b11110011 D
b11110011 I
b11110011 N
0J
#2740
0$
0+
#2745
1$
1+
#2748
0.
b10010 :
#2750
0$
0+
#2755
1$
1+
#2758
10
0&
#2760
0$
0+
#2765
1$
1+
#2768
12
b1 6
#2770
0$
0+
#2775
1$
1+
#2778
0!
0"
0<
#2780
0$
0+
#2785
1$
1+
#2790
0$
0+
#2795
1$
1+
#2800
0$
0+
#2805
1$
1+
#2808
00
bx (
bx ,
bx 7
bx =
bx B
bx G
bx L
1%
#2809
xA
bx 9
bx ?
x@
xE
bx D
bx I
bx N
xJ
#2810
0$
0+
#2815
1$
1+
#2820
0$
0+
#2825
1$
1+
#2830
0$
0+
#2835
1$
1+
#2838
bx M
1/
bx )
bx -
bx 8
bx >
bx C
bx H
1&
#2840
0$
0+
#2845
1$
1+
#2848
11
02
b10 6
#2850
0$
0+
#2855
1$
1+
#2858
r2858 U
b10001 :
1#
1;
#2860
0$
0+
#2865
1$
1+
#2868
b10000 :
#2870
0$
0+
#2875
1$
1+
#2878
b1111 :
#2880
0$
0+
#2885
1$
1+
#2888
b1110 :
#2890
0$
0+
#2895
1$
1+
#2898
b1101 :
#2900
0$
0+
#2905
1$
1+
#2908
b1100 :
#2910
0$
0+
#2915
1$
1+
#2918
b1011 :
#2920
0$
0+
#2925
1$
1+
#2928
b1010 :
#2930
0$
0+
#2935
1$
1+
#2938
b1001 :
#2940
0$
0+
#2945
1$
1+
#2948
b1000 :
#2950
0$
0+
#2955
1$
1+
#2958
b111 :
#2960
0$
0+
#2965
1$
1+
#2968
b110 :
#2970
0$
0+
#2975
1$
1+
#2978
b101 :
#2980
0$
0+
#2985
1$
1+
#2988
b100 :
#2990
0$
0+
#2995
1$
1+
#2998
b11 :
#3000
0$
0+
#3005
1$
1+
#3008
b10 :
#3010
0$
0+
#3015
1$
1+
#3018
1.
b1 :
#3020
0$
0+
#3025
1$
1+
#3028
01
0.
b0 :
b0 6
#3030
0$
0+
#3035
1$
1+
#3038
b10010 P
b1010 Q
b1001 O
r18 S
r3038 T
b10010 [
b1010 \
b1001 Z
b10010 W
b1010 X
b1001 V
x.
bx :
0#
0;
1!
1"
1<
#3040
0$
0+
#3045
1$
1+
#3050
0$
0+
#3055
1$
1+
#3060
0$
0+
#3065
1$
1+
#3068
b10010 (
b10010 ,
b10010 7
b10010 =
b10010 B
b10010 G
b10010 L
#3070
0$
0+
#3075
1$
1+
#3078
0/
0%
#3080
0$
0+
#3085
1$
1+
#3090
0$
0+
#3095
1$
1+
#3098
b0xx010 9
b0xx010 ?
b11110101 M
b1010 )
b1010 -
b1010 8
b1010 >
b1010 C
b1010 H
#3099
b10010 9
b10010 ?
0A
0@
0E
b1000 D
b1000 I
b1000 N
1J
#3100
0$
0+
#3105
1$
1+
#3108
0.
b10010 :
#3110
0$
0+
#3115
1$
1+
#3118
10
0&
#3120
0$
0+
#3125
1$
1+
#3128
12
b1 6
#3130
0$
0+
#3135
1$
1+
#3138
0!
0"
0<
#3140
0$
0+
#3145
1$
1+
#3150
0$
0+
#3155
1$
1+
#3160
0$
0+
#3165
1$
1+
#3168
00
bx 9
bx ?
bx (
bx ,
bx 7
bx =
bx B
bx G
bx L
1%
#3169
xA
x@
xE
bx D
bx I
bx N
xJ
#3170
0$
0+
#3175
1$
1+
#3180
0$
0+
#3185
1$
1+
#3190
0$
0+
#3195
1$
1+
#3198
bx M
1/
bx )
bx -
bx 8
bx >
bx C
bx H
1&
#3200
0$
0+
#3205
1$
1+
#3208
11
02
b10 6
#3210
0$
0+
#3215
1$
1+
#3218
r3218 U
b10001 :
1#
1;
#3220
0$
0+
#3225
1$
1+
#3228
b10000 :
#3230
0$
0+
#3235
1$
1+
#3238
b1111 :
#3240
0$
0+
#3245
1$
1+
#3248
b1110 :
#3250
0$
0+
#3255
1$
1+
#3258
b1101 :
#3260
0$
0+
#3265
1$
1+
#3268
b1100 :
#3270
0$
0+
#3275
1$
1+
#3278
b1011 :
#3280
0$
0+
#3285
1$
1+
#3288
b1010 :
#3290
0$
0+
#3295
1$
1+
#3298
b1001 :
#3300
0$
0+
#3305
1$
1+
#3308
b1000 :
#3310
0$
0+
#3315
1$
1+
#3318
b111 :
#3320
0$
0+
#3325
1$
1+
#3328
b110 :
#3330
0$
0+
#3335
1$
1+
#3338
b101 :
#3340
0$
0+
#3345
1$
1+
#3348
b100 :
#3350
0$
0+
#3355
1$
1+
#3358
b11 :
#3360
0$
0+
#3365
1$
1+
#3368
b10 :
#3370
0$
0+
#3375
1$
1+
#3378
1.
b1 :
#3380
0$
0+
#3385
1$
1+
#3388
01
0.
b0 :
b0 6
#3390
0$
0+
#3395
1$
1+
#3398
b1111 P
b10010 Q
b1010 O
r3398 T
b1111 [
b10010 \
b1010 Z
b1111 W
b10010 X
b1010 V
x.
bx :
0#
0;
1!
1"
1<
#3400
0$
0+
#3405
1$
1+
#3410
0$
0+
#3415
1$
1+
#3420
0$
0+
#3425
1$
1+
#3428
b1111 (
b1111 ,
b1111 7
b1111 =
b1111 B
b1111 G
b1111 L
#3430
0$
0+
#3435
1$
1+
#3438
0/
0%
#3440
0$
0+
#3445
1$
1+
#3450
0$
0+
#3455
1$
1+
