misc/impulse_generator_dav_rfd/waveform.vcd
$date
	Sun Jan  5 12:34:07 2025
$end
$version
	Icarus Verilog
$end
$timescale
	1s
$end
$scope module testbench $end
$var wire 1 ! t_rfd $end
$var wire 1 " t_out $end
$var reg 1 # t_clock $end
$var reg 1 $ t_dav_ $end
$var reg 8 % t_numero [7:0] $end
$var reg 1 & t_reset_ $end
$scope module impulse_gen $end
$var wire 1 # clock $end
$var wire 1 $ dav_ $end
$var wire 8 ' numero [7:0] $end
$var wire 1 & reset_ $end
$var wire 1 ! rfd $end
$var wire 1 " out $end
$var wire 2 ( c1_c0 [1:0] $end
$var wire 2 ) b1_b0 [1:0] $end
$scope module cu $end
$var wire 2 * b1_b0 [1:0] $end
$var wire 1 # clock $end
$var wire 1 & reset_ $end
$var wire 1 + c_eff $end
$var wire 2 , c1_c0 [1:0] $end
$var wire 2 - addr_N [1:0] $end
$var parameter 32 . s0 $end
$var parameter 32 / s1 $end
$var parameter 32 0 s2 $end
$var reg 2 1 STAR [1:0] $end
$upscope $end
$scope module dp $end
$var wire 2 2 b1_b0 [1:0] $end
$var wire 1 # clock $end
$var wire 1 $ dav_ $end
$var wire 8 3 numero [7:0] $end
$var wire 1 " out $end
$var wire 1 & reset_ $end
$var wire 1 ! rfd $end
$var wire 2 4 c1_c0 [1:0] $end
$var reg 8 5 COUNT [7:0] $end
$var reg 1 6 OUT $end
$var reg 1 7 RFD $end
$upscope $end
$upscope $end
$upscope $end
$enddefinitions $end
$comment Show the parameter values. $end
$dumpall
b10 0
b1 /
b0 .
$end
#0
$dumpvars
x7
x6
bx 5
bx1 4
bx 3
bx 2
bx 1
bx -
bx1 ,
x+
bx *
bx )
bx1 (
bx '
1&
bx %
1$
0#
x"
x!
$end
#1
b0 -
b1 )
b1 *
b1 2
1+
b0 1
0"
06
1!
17
b0 %
b0 '
b0 3
#5
1#
#8
b1 (
b1 ,
b1 4
b0 5
#10
0#
#11
b1 -
0+
b0 (
b0 ,
b0 4
0$
#15
1#
#18
b10 )
b10 *
b10 2
b1 1
#20
0#
#25
1#
#28
1"
16
b11111111 5
0!
07
#30
0#
#35
1#
#38
b11111110 5
#40
0#
#45
1#
#48
b11111101 5
#50
0#
#55
1#
#58
b11111100 5
#60
0#
#65
1#
#68
b11111011 5
#70
0#
#75
1#
#78
b11111010 5
#80
0#
#85
1#
#88
b11111001 5
#90
0#
#95
1#
#98
b11111000 5
#100
0#
#105
1#
#108
b11110111 5
#110
0#
#115
1#
#118
b11110110 5
#120
0#
#125
1#
#128
b11110101 5
#130
0#
#135
1#
#138
b11110100 5
#140
0#
#145
1#
#148
b11110011 5
#150
0#
#155
1#
#158
b11110010 5
#160
0#
#165
1#
#168
b11110001 5
#170
0#
#175
1#
#178
b11110000 5
#180
0#
#185
1#
#188
b11101111 5
#190
0#
#195
1#
#198
b11101110 5
#200
0#
#205
1#
#208
b11101101 5
#210
0#
#215
1#
#218
b11101100 5
#220
0#
#225
1#
#228
b11101011 5
#230
0#
#235
1#
#238
b11101010 5
#240
0#
#245
1#
#248
b11101001 5
#250
0#
#255
1#
#258
b11101000 5
#260
0#
#265
1#
#268
b11100111 5
#270
0#
#275
1#
#278
b11100110 5
#280
0#
#285
1#
#288
b11100101 5
#290
0#
#295
1#
#298
b11100100 5
#300
0#
#305
1#
#308
b11100011 5
#310
0#
#315
1#
#318
b11100010 5
#320
0#
#325
1#
#328
b11100001 5
#330
0#
#335
1#
#338
b11100000 5
#340
0#
#345
1#
#348
b11011111 5
#350
0#
#355
1#
#358
b11011110 5
#360
0#
#365
1#
#368
b11011101 5
#370
0#
#375
1#
#378
b11011100 5
#380
0#
#385
1#
#388
b11011011 5
#390
0#
#395
1#
#398
b11011010 5
#400
0#
#405
1#
#408
b11011001 5
#410
0#
#415
1#
#418
b11011000 5
#420
0#
#425
1#
#428
b11010111 5
#430
0#
#435
1#
#438
b11010110 5
#440
0#
#445
1#
#448
b11010101 5
#450
0#
#455
1#
#458
b11010100 5
#460
0#
#465
1#
#468
b11010011 5
#470
0#
#475
1#
#478
b11010010 5
#480
0#
#485
1#
#488
b11010001 5
#490
0#
#495
1#
#498
b11010000 5
#500
0#
#505
1#
#508
b11001111 5
#510
0#
#515
1#
#518
b11001110 5
#520
0#
#525
1#
#528
b11001101 5
#530
0#
#535
1#
#538
b11001100 5
#540
0#
#545
1#
#548
b11001011 5
#550
0#
#555
1#
#558
b11001010 5
#560
0#
#565
1#
#568
b11001001 5
#570
0#
#575
1#
#578
b11001000 5
#580
0#
#585
1#
#588
b11000111 5
#590
0#
#595
1#
#598
b11000110 5
#600
0#
#605
1#
#608
b11000101 5
#610
0#
#615
1#
#618
b11000100 5
#620
0#
#625
1#
#628
b11000011 5
#630
0#
#635
1#
#638
b11000010 5
#640
0#
#645
1#
#648
b11000001 5
#650
0#
#655
1#
#658
b11000000 5
#660
0#
#665
1#
#668
b10111111 5
#670
0#
#675
1#
#678
b10111110 5
#680
0#
#685
1#
#688
b10111101 5
#690
0#
#695
1#
#698
b10111100 5
#700
0#
#705
1#
#708
b10111011 5
#710
0#
#715
1#
#718
b10111010 5
#720
0#
#725
1#
#728
b10111001 5
#730
0#
#735
1#
#738
b10111000 5
#740
0#
#745
1#
#748
b10110111 5
#750
0#
#755
1#
#758
b10110110 5
#760
0#
#765
1#
#768
b10110101 5
#770
0#
#775
1#
#778
b10110100 5
#780
0#
#785
1#
#788
b10110011 5
#790
0#
#795
1#
#798
b10110010 5
#800
0#
#805
1#
#808
b10110001 5
#810
0#
#815
1#
#818
b10110000 5
#820
0#
#825
1#
#828
b10101111 5
#830
0#
#835
1#
#838
b10101110 5
#840
0#
#845
1#
#848
b10101101 5
#850
0#
#855
1#
#858
b10101100 5
#860
0#
#865
1#
#868
b10101011 5
#870
0#
#875
1#
#878
b10101010 5
#880
0#
#885
1#
#888
b10101001 5
#890
0#
#895
1#
#898
b10101000 5
#900
0#
#905
1#
#908
b10100111 5
#910
0#
#915
1#
#918
b10100110 5
#920
0#
#925
1#
#928
b10100101 5
#930
0#
#935
1#
#938
b10100100 5
#940
0#
#945
1#
#948
b10100011 5
#950
0#
#955
1#
#958
b10100010 5
#960
0#
#965
1#
#968
b10100001 5
#970
0#
#975
1#
#978
b10100000 5
#980
0#
#985
1#
#988
b10011111 5
#990
0#
#995
1#
#998
b10011110 5
#1000
0#
#1005
1#
#1008
b10011101 5
#1010
0#
#1015
1#
#1018
b10011100 5
#1020
0#
#1025
1#
#1028
b10011011 5
#1030
0#
#1035
1#
#1038
b10011010 5
#1040
0#
#1045
1#
#1048
b10011001 5
#1050
0#
#1055
1#
#1058
b10011000 5
#1060
0#
#1065
1#
#1068
b10010111 5
#1070
0#
#1075
1#
#1078
b10010110 5
#1080
0#
#1085
1#
#1088
b10010101 5
#1090
0#
#1095
1#
#1098
b10010100 5
#1100
0#
#1105
1#
#1108
b10010011 5
#1110
0#
#1115
1#
#1118
b10010010 5
#1120
0#
#1125
1#
#1128
b10010001 5
#1130
0#
#1135
1#
#1138
b10010000 5
#1140
0#
#1145
1#
#1148
b10001111 5
#1150
0#
#1155
1#
#1158
b10001110 5
#1160
0#
#1165
1#
#1168
b10001101 5
#1170
0#
#1175
1#
#1178
b10001100 5
#1180
0#
#1185
1#
#1188
b10001011 5
#1190
0#
#1195
1#
#1198
b10001010 5
#1200
0#
#1205
1#
#1208
b10001001 5
#1210
0#
#1215
1#
#1218
b10001000 5
#1220
0#
#1225
1#
#1228
b10000111 5
#1230
0#
#1235
1#
#1238
b10000110 5
#1240
0#
#1245
1#
#1248
b10000101 5
#1250
0#
#1255
1#
#1258
b10000100 5
#1260
0#
#1265
1#
#1268
b10000011 5
#1270
0#
#1275
1#
#1278
b10000010 5
#1280
0#
#1285
1#
#1288
b10000001 5
#1290
0#
#1295
1#
#1298
b10000000 5
#1300
0#
#1305
1#
#1308
b1111111 5
#1310
0#
#1315
1#
#1318
b1111110 5
#1320
0#
#1325
1#
#1328
b1111101 5
#1330
0#
#1335
1#
#1338
b1111100 5
#1340
0#
#1345
1#
#1348
b1111011 5
#1350
0#
#1355
1#
#1358
b1111010 5
#1360
0#
#1365
1#
#1368
b1111001 5
#1370
0#
#1375
1#
#1378
b1111000 5
#1380
0#
#1385
1#
#1388
b1110111 5
#1390
0#
#1395
1#
#1398
b1110110 5
#1400
0#
#1405
1#
#1408
b1110101 5
#1410
0#
#1415
1#
#1418
b1110100 5
#1420
0#
#1425
1#
#1428
b1110011 5
#1430
0#
#1435
1#
#1438
b1110010 5
#1440
0#
#1445
1#
#1448
b1110001 5
#1450
0#
#1455
1#
#1458
b1110000 5
#1460
0#
#1465
1#
#1468
b1101111 5
#1470
0#
#1475
1#
#1478
b1101110 5
#1480
0#
#1485
1#
#1488
b1101101 5
#1490
0#
#1495
1#
#1498
b1101100 5
#1500
0#
#1505
1#
#1508
b1101011 5
#1510
0#
#1515
1#
#1518
b1101010 5
#1520
0#
#1525
1#
#1528
b1101001 5
#1530
0#
#1535
1#
#1538
b1101000 5
#1540
0#
#1545
1#
#1548
b1100111 5
#1550
0#
#1555
1#
#1558
b1100110 5
#1560
0#
#1565
1#
#1568
b1100101 5
#1570
0#
#1575
1#
#1578
b1100100 5
#1580
0#
#1585
1#
#1588
b1100011 5
#1590
0#
#1595
1#
#1598
b1100010 5
#1600
0#
#1605
1#
#1608
b1100001 5
#1610
0#
#1615
1#
#1618
b1100000 5
#1620
0#
#1625
1#
#1628
b1011111 5
#1630
0#
#1635
1#
#1638
b1011110 5
#1640
0#
#1645
1#
#1648
b1011101 5
#1650
0#
#1655
1#
#1658
b1011100 5
#1660
0#
#1665
1#
#1668
b1011011 5
#1670
0#
#1675
1#
#1678
b1011010 5
#1680
0#
#1685
1#
#1688
b1011001 5
#1690
0#
#1695
1#
#1698
b1011000 5
#1700
0#
#1705
1#
#1708
b1010111 5
#1710
0#
#1715
1#
#1718
b1010110 5
#1720
0#
#1725
1#
#1728
b1010101 5
#1730
0#
#1735
1#
#1738
b1010100 5
#1740
0#
#1745
1#
#1748
b1010011 5
#1750
0#
#1755
1#
#1758
b1010010 5
#1760
0#
#1765
1#
#1768
b1010001 5
#1770
0#
#1775
1#
#1778
b1010000 5
#1780
0#
#1785
1#
#1788
b1001111 5
#1790
0#
#1795
1#
#1798
b1001110 5
#1800
0#
#1805
1#
#1808
b1001101 5
#1810
0#
#1815
1#
#1818
b1001100 5
#1820
0#
#1825
1#
#1828
b1001011 5
#1830
0#
#1835
1#
#1838
b1001010 5
#1840
0#
#1845
1#
#1848
b1001001 5
#1850
0#
#1855
1#
#1858
b1001000 5
#1860
0#
#1865
1#
#1868
b1000111 5
#1870
0#
#1875
1#
#1878
b1000110 5
#1880
0#
#1885
1#
#1888
b1000101 5
#1890
0#
#1895
1#
#1898
b1000100 5
#1900
0#
#1905
1#
#1908
b1000011 5
#1910
0#
#1915
1#
#1918
b1000010 5
#1920
0#
#1925
1#
#1928
b1000001 5
#1930
0#
#1935
1#
#1938
b1000000 5
#1940
0#
#1945
1#
#1948
b111111 5
#1950
0#
#1955
1#
#1958
b111110 5
#1960
0#
#1965
1#
#1968
b111101 5
#1970
0#
#1975
1#
#1978
b111100 5
#1980
0#
#1985
1#
#1988
b111011 5
#1990
0#
#1995
1#
#1998
b111010 5
#2000
0#
#2005
1#
#2008
b111001 5
#2010
0#
#2015
1#
#2018
b111000 5
#2020
0#
#2025
1#
#2028
b110111 5
#2030
0#
#2035
1#
#2038
b110110 5
#2040
0#
#2045
1#
#2048
b110101 5
#2050
0#
#2055
1#
#2058
b110100 5
#2060
0#
#2065
1#
#2068
b110011 5
#2070
0#
#2075
1#
#2078
b110010 5
#2080
0#
#2085
1#
#2088
b110001 5
#2090
0#
#2095
1#
#2098
b110000 5
#2100
0#
#2105
1#
#2108
b101111 5
#2110
0#
#2115
1#
#2118
b101110 5
#2120
0#
#2125
1#
#2128
b101101 5
#2130
0#
#2135
1#
#2138
b101100 5
#2140
0#
#2145
1#
#2148
b101011 5
#2150
0#
#2155
1#
#2158
b101010 5
#2160
0#
#2165
1#
#2168
b101001 5
#2170
0#
#2175
1#
#2178
b101000 5
#2180
0#
#2185
1#
#2188
b100111 5
#2190
0#
#2195
1#
#2198
b100110 5
#2200
0#
#2205
1#
#2208
b100101 5
#2210
0#
#2215
1#
#2218
b100100 5
#2220
0#
#2225
1#
#2228
b100011 5
#2230
0#
#2235
1#
#2238
b100010 5
#2240
0#
#2245
1#
#2248
b100001 5
#2250
0#
#2255
1#
#2258
b100000 5
#2260
0#
#2265
1#
#2268
b11111 5
#2270
0#
#2275
1#
#2278
b11110 5
#2280
0#
#2285
1#
#2288
b11101 5
#2290
0#
#2295
1#
#2298
b11100 5
#2300
0#
#2305
1#
#2308
b11011 5
#2310
0#
#2315
1#
#2318
b11010 5
#2320
0#
#2325
1#
#2328
b11001 5
#2330
0#
#2335
1#
#2338
b11000 5
#2340
0#
#2345
1#
#2348
b10111 5
#2350
0#
#2355
1#
#2358
b10110 5
#2360
0#
#2365
1#
#2368
b10101 5
#2370
0#
#2375
1#
#2378
b10100 5
#2380
0#
#2385
1#
#2388
b10011 5
#2390
0#
#2395
1#
#2398
b10010 5
#2400
0#
#2405
1#
#2408
b10001 5
#2410
0#
#2415
1#
#2418
b10000 5
#2420
0#
#2425
1#
#2428
b1111 5
#2430
0#
#2435
1#
#2438
b1110 5
#2440
0#
#2445
1#
#2448
b1101 5
#2450
0#
#2455
1#
#2458
b1100 5
#2460
0#
#2465
1#
#2468
b1011 5
#2470
0#
#2475
1#
#2478
b1010 5
#2480
0#
#2485
1#
#2488
b1001 5
#2490
0#
#2495
1#
#2498
b1000 5
#2500
0#
#2505
1#
#2508
b111 5
#2510
0#
#2515
1#
#2518
b110 5
#2520
0#
#2525
1#
#2528
b101 5
#2530
0#
#2535
1#
#2538
b100 5
#2540
0#
#2545
1#
#2548
b11 5
#2550
0#
#2555
1#
#2558
b10 5
#2560
0#
#2565
1#
#2568
b10 -
1+
b10 (
b10 ,
b10 4
b1 5
#2570
0#
#2575
1#
#2578
b0 )
b0 *
b0 2
b10 1
0+
b0 (
b0 ,
b0 4
b0 5
#2580
0#
#2585
1#
#2588
0"
06
